[0,22050]																																																																																																																																																																																																																																																																																																																																																																																																																																																																																																																																																																																																																																																																																																																																																																																																																																																																																																																																																																																																																																																															
[0,11025]	[11025,22050]																																																																																																																																																																																																																																																																																																																																																																																																																																																																																																																																																																																																																																																																																																																																																																																																																																																																																																																																																																																																																																																														
[0,5512.5]	[5512.5,11025]	[11025,16537.5]	[16537.5,22050]																																																																																																																																																																																																																																																																																																																																																																																																																																																																																																																																																																																																																																																																																																																																																																																																																																																																																																																																																																																																																																																												
[0,2756.25]	[2756.25,5512.5]	[5512.5,8268.75]	[8268.75,11025]	[11025,13781.25]	[13781.25,16537.5]	[16537.5,19293.75]	[19293.75,22050]																																																																																																																																																																																																																																																																																																																																																																																																																																																																																																																																																																																																																																																																																																																																																																																																																																																																																																																																																																																																																																																								
[0,1378.125]	[1378.125,2756.25]	[2756.25,4134.375]	[4134.375,5512.5]	[5512.5,6890.625]	[6890.625,8268.75]	[8268.75,9646.875]	[9646.875,11025]	[11025,12403.125]	[12403.125,13781.25]	[13781.25,15159.375]	[15159.375,16537.5]	[16537.5,17915.625]	[17915.625,19293.75]	[19293.75,20671.875]	[20671.875,22050]																																																																																																																																																																																																																																																																																																																																																																																																																																																																																																																																																																																																																																																																																																																																																																																																																																																																																																																																																																																																																																																
[0,689.0625]	[689.0625,1378.125]	[1378.125,2067.1875]	[2067.1875,2756.25]	[2756.25,3445.3125]	[3445.3125,4134.375]	[4134.375,4823.4375]	[4823.4375,5512.5]	[5512.5,6201.5625]	[6201.5625,6890.625]	[6890.625,7579.6875]	[7579.6875,8268.75]	[8268.75,8957.8125]	[8957.8125,9646.875]	[9646.875,10335.9375]	[10335.9375,11025]	[11025,11714.0625]	[11714.0625,12403.125]	[12403.125,13092.1875]	[13092.1875,13781.25]	[13781.25,14470.3125]	[14470.3125,15159.375]	[15159.375,15848.4375]	[15848.4375,16537.5]	[16537.5,17226.5625]	[17226.5625,17915.625]	[17915.625,18604.6875]	[18604.6875,19293.75]	[19293.75,19982.8125]	[19982.8125,20671.875]	[20671.875,21360.9375]	[21360.9375,22050]																																																																																																																																																																																																																																																																																																																																																																																																																																																																																																																																																																																																																																																																																																																																																																																																																																																																																																																																																																																																																																
[0,344.53125]	[344.53125,689.0625]	[689.0625,1033.59375]	[1033.59375,1378.125]	[1378.125,1722.65625]	[1722.65625,2067.1875]	[2067.1875,2411.71875]	[2411.71875,2756.25]	[2756.25,3100.78125]	[3100.78125,3445.3125]	[3445.3125,3789.84375]	[3789.84375,4134.375]	[4134.375,4478.90625]	[4478.90625,4823.4375]	[4823.4375,5167.96875]	[5167.96875,5512.5]	[5512.5,5857.03125]	[5857.03125,6201.5625]	[6201.5625,6546.09375]	[6546.09375,6890.625]	[6890.625,7235.15625]	[7235.15625,7579.6875]	[7579.6875,7924.21875]	[7924.21875,8268.75]	[8268.75,8613.28125]	[8613.28125,8957.8125]	[8957.8125,9302.34375]	[9302.34375,9646.875]	[9646.875,9991.40625]	[9991.40625,10335.9375]	[10335.9375,10680.46875]	[10680.46875,11025]	[11025,11369.53125]	[11369.53125,11714.0625]	[11714.0625,12058.59375]	[12058.59375,12403.125]	[12403.125,12747.65625]	[12747.65625,13092.1875]	[13092.1875,13436.71875]	[13436.71875,13781.25]	[13781.25,14125.78125]	[14125.78125,14470.3125]	[14470.3125,14814.84375]	[14814.84375,15159.375]	[15159.375,15503.90625]	[15503.90625,15848.4375]	[15848.4375,16192.96875]	[16192.96875,16537.5]	[16537.5,16882.03125]	[16882.03125,17226.5625]	[17226.5625,17571.09375]	[17571.09375,17915.625]	[17915.625,18260.15625]	[18260.15625,18604.6875]	[18604.6875,18949.21875]	[18949.21875,19293.75]	[19293.75,19638.28125]	[19638.28125,19982.8125]	[19982.8125,20327.34375]	[20327.34375,20671.875]	[20671.875,21016.40625]	[21016.40625,21360.9375]	[21360.9375,21705.46875]	[21705.46875,22050]																																																																																																																																																																																																																																																																																																																																																																																																																																																																																																																																																																																																																																																																																																																																																																																																																																																																																																																																																																																																
[0,172.265625]	[172.265625,344.53125]	[344.53125,516.796875]	[516.796875,689.0625]	[689.0625,861.328125]	[861.328125,1033.59375]	[1033.59375,1205.859375]	[1205.859375,1378.125]	[1378.125,1550.390625]	[1550.390625,1722.65625]	[1722.65625,1894.921875]	[1894.921875,2067.1875]	[2067.1875,2239.453125]	[2239.453125,2411.71875]	[2411.71875,2583.984375]	[2583.984375,2756.25]	[2756.25,2928.515625]	[2928.515625,3100.78125]	[3100.78125,3273.046875]	[3273.046875,3445.3125]	[3445.3125,3617.578125]	[3617.578125,3789.84375]	[3789.84375,3962.109375]	[3962.109375,4134.375]	[4134.375,4306.640625]	[4306.640625,4478.90625]	[4478.90625,4651.171875]	[4651.171875,4823.4375]	[4823.4375,4995.703125]	[4995.703125,5167.96875]	[5167.96875,5340.234375]	[5340.234375,5512.5]	[5512.5,5684.765625]	[5684.765625,5857.03125]	[5857.03125,6029.296875]	[6029.296875,6201.5625]	[6201.5625,6373.828125]	[6373.828125,6546.09375]	[6546.09375,6718.359375]	[6718.359375,6890.625]	[6890.625,7062.890625]	[7062.890625,7235.15625]	[7235.15625,7407.421875]	[7407.421875,7579.6875]	[7579.6875,7751.953125]	[7751.953125,7924.21875]	[7924.21875,8096.484375]	[8096.484375,8268.75]	[8268.75,8441.015625]	[8441.015625,8613.28125]	[8613.28125,8785.546875]	[8785.546875,8957.8125]	[8957.8125,9130.078125]	[9130.078125,9302.34375]	[9302.34375,9474.609375]	[9474.609375,9646.875]	[9646.875,9819.140625]	[9819.140625,9991.40625]	[9991.40625,10163.671875]	[10163.671875,10335.9375]	[10335.9375,10508.203125]	[10508.203125,10680.46875]	[10680.46875,10852.734375]	[10852.734375,11025]	[11025,11197.265625]	[11197.265625,11369.53125]	[11369.53125,11541.796875]	[11541.796875,11714.0625]	[11714.0625,11886.328125]	[11886.328125,12058.59375]	[12058.59375,12230.859375]	[12230.859375,12403.125]	[12403.125,12575.390625]	[12575.390625,12747.65625]	[12747.65625,12919.921875]	[12919.921875,13092.1875]	[13092.1875,13264.453125]	[13264.453125,13436.71875]	[13436.71875,13608.984375]	[13608.984375,13781.25]	[13781.25,13953.515625]	[13953.515625,14125.78125]	[14125.78125,14298.046875]	[14298.046875,14470.3125]	[14470.3125,14642.578125]	[14642.578125,14814.84375]	[14814.84375,14987.109375]	[14987.109375,15159.375]	[15159.375,15331.640625]	[15331.640625,15503.90625]	[15503.90625,15676.171875]	[15676.171875,15848.4375]	[15848.4375,16020.703125]	[16020.703125,16192.96875]	[16192.96875,16365.234375]	[16365.234375,16537.5]	[16537.5,16709.765625]	[16709.765625,16882.03125]	[16882.03125,17054.296875]	[17054.296875,17226.5625]	[17226.5625,17398.828125]	[17398.828125,17571.09375]	[17571.09375,17743.359375]	[17743.359375,17915.625]	[17915.625,18087.890625]	[18087.890625,18260.15625]	[18260.15625,18432.421875]	[18432.421875,18604.6875]	[18604.6875,18776.953125]	[18776.953125,18949.21875]	[18949.21875,19121.484375]	[19121.484375,19293.75]	[19293.75,19466.015625]	[19466.015625,19638.28125]	[19638.28125,19810.546875]	[19810.546875,19982.8125]	[19982.8125,20155.078125]	[20155.078125,20327.34375]	[20327.34375,20499.609375]	[20499.609375,20671.875]	[20671.875,20844.140625]	[20844.140625,21016.40625]	[21016.40625,21188.671875]	[21188.671875,21360.9375]	[21360.9375,21533.203125]	[21533.203125,21705.46875]	[21705.46875,21877.734375]	[21877.734375,22050]																																																																																																																																																																																																																																																																																																																																																																																																																																																																																																																																																																																																																																																																																																																																																																																																																																																																																																																																
[0,86.1328125]	[86.1328125,172.265625]	[172.265625,258.3984375]	[258.3984375,344.53125]	[344.53125,430.6640625]	[430.6640625,516.796875]	[516.796875,602.9296875]	[602.9296875,689.0625]	[689.0625,775.1953125]	[775.1953125,861.328125]	[861.328125,947.4609375]	[947.4609375,1033.59375]	[1033.59375,1119.7265625]	[1119.7265625,1205.859375]	[1205.859375,1291.9921875]	[1291.9921875,1378.125]	[1378.125,1464.2578125]	[1464.2578125,1550.390625]	[1550.390625,1636.5234375]	[1636.5234375,1722.65625]	[1722.65625,1808.7890625]	[1808.7890625,1894.921875]	[1894.921875,1981.0546875]	[1981.0546875,2067.1875]	[2067.1875,2153.3203125]	[2153.3203125,2239.453125]	[2239.453125,2325.5859375]	[2325.5859375,2411.71875]	[2411.71875,2497.8515625]	[2497.8515625,2583.984375]	[2583.984375,2670.1171875]	[2670.1171875,2756.25]	[2756.25,2842.3828125]	[2842.3828125,2928.515625]	[2928.515625,3014.6484375]	[3014.6484375,3100.78125]	[3100.78125,3186.9140625]	[3186.9140625,3273.046875]	[3273.046875,3359.1796875]	[3359.1796875,3445.3125]	[3445.3125,3531.4453125]	[3531.4453125,3617.578125]	[3617.578125,3703.7109375]	[3703.7109375,3789.84375]	[3789.84375,3875.9765625]	[3875.9765625,3962.109375]	[3962.109375,4048.2421875]	[4048.2421875,4134.375]	[4134.375,4220.5078125]	[4220.5078125,4306.640625]	[4306.640625,4392.7734375]	[4392.7734375,4478.90625]	[4478.90625,4565.0390625]	[4565.0390625,4651.171875]	[4651.171875,4737.3046875]	[4737.3046875,4823.4375]	[4823.4375,4909.5703125]	[4909.5703125,4995.703125]	[4995.703125,5081.8359375]	[5081.8359375,5167.96875]	[5167.96875,5254.1015625]	[5254.1015625,5340.234375]	[5340.234375,5426.3671875]	[5426.3671875,5512.5]	[5512.5,5598.6328125]	[5598.6328125,5684.765625]	[5684.765625,5770.8984375]	[5770.8984375,5857.03125]	[5857.03125,5943.1640625]	[5943.1640625,6029.296875]	[6029.296875,6115.4296875]	[6115.4296875,6201.5625]	[6201.5625,6287.6953125]	[6287.6953125,6373.828125]	[6373.828125,6459.9609375]	[6459.9609375,6546.09375]	[6546.09375,6632.2265625]	[6632.2265625,6718.359375]	[6718.359375,6804.4921875]	[6804.4921875,6890.625]	[6890.625,6976.7578125]	[6976.7578125,7062.890625]	[7062.890625,7149.0234375]	[7149.0234375,7235.15625]	[7235.15625,7321.2890625]	[7321.2890625,7407.421875]	[7407.421875,7493.5546875]	[7493.5546875,7579.6875]	[7579.6875,7665.8203125]	[7665.8203125,7751.953125]	[7751.953125,7838.0859375]	[7838.0859375,7924.21875]	[7924.21875,8010.3515625]	[8010.3515625,8096.484375]	[8096.484375,8182.6171875]	[8182.6171875,8268.75]	[8268.75,8354.8828125]	[8354.8828125,8441.015625]	[8441.015625,8527.1484375]	[8527.1484375,8613.28125]	[8613.28125,8699.4140625]	[8699.4140625,8785.546875]	[8785.546875,8871.6796875]	[8871.6796875,8957.8125]	[8957.8125,9043.9453125]	[9043.9453125,9130.078125]	[9130.078125,9216.2109375]	[9216.2109375,9302.34375]	[9302.34375,9388.4765625]	[9388.4765625,9474.609375]	[9474.609375,9560.7421875]	[9560.7421875,9646.875]	[9646.875,9733.0078125]	[9733.0078125,9819.140625]	[9819.140625,9905.2734375]	[9905.2734375,9991.40625]	[9991.40625,10077.5390625]	[10077.5390625,10163.671875]	[10163.671875,10249.8046875]	[10249.8046875,10335.9375]	[10335.9375,10422.0703125]	[10422.0703125,10508.203125]	[10508.203125,10594.3359375]	[10594.3359375,10680.46875]	[10680.46875,10766.6015625]	[10766.6015625,10852.734375]	[10852.734375,10938.8671875]	[10938.8671875,11025]	[11025,11111.1328125]	[11111.1328125,11197.265625]	[11197.265625,11283.3984375]	[11283.3984375,11369.53125]	[11369.53125,11455.6640625]	[11455.6640625,11541.796875]	[11541.796875,11627.9296875]	[11627.9296875,11714.0625]	[11714.0625,11800.1953125]	[11800.1953125,11886.328125]	[11886.328125,11972.4609375]	[11972.4609375,12058.59375]	[12058.59375,12144.7265625]	[12144.7265625,12230.859375]	[12230.859375,12316.9921875]	[12316.9921875,12403.125]	[12403.125,12489.2578125]	[12489.2578125,12575.390625]	[12575.390625,12661.5234375]	[12661.5234375,12747.65625]	[12747.65625,12833.7890625]	[12833.7890625,12919.921875]	[12919.921875,13006.0546875]	[13006.0546875,13092.1875]	[13092.1875,13178.3203125]	[13178.3203125,13264.453125]	[13264.453125,13350.5859375]	[13350.5859375,13436.71875]	[13436.71875,13522.8515625]	[13522.8515625,13608.984375]	[13608.984375,13695.1171875]	[13695.1171875,13781.25]	[13781.25,13867.3828125]	[13867.3828125,13953.515625]	[13953.515625,14039.6484375]	[14039.6484375,14125.78125]	[14125.78125,14211.9140625]	[14211.9140625,14298.046875]	[14298.046875,14384.1796875]	[14384.1796875,14470.3125]	[14470.3125,14556.4453125]	[14556.4453125,14642.578125]	[14642.578125,14728.7109375]	[14728.7109375,14814.84375]	[14814.84375,14900.9765625]	[14900.9765625,14987.109375]	[14987.109375,15073.2421875]	[15073.2421875,15159.375]	[15159.375,15245.5078125]	[15245.5078125,15331.640625]	[15331.640625,15417.7734375]	[15417.7734375,15503.90625]	[15503.90625,15590.0390625]	[15590.0390625,15676.171875]	[15676.171875,15762.3046875]	[15762.3046875,15848.4375]	[15848.4375,15934.5703125]	[15934.5703125,16020.703125]	[16020.703125,16106.8359375]	[16106.8359375,16192.96875]	[16192.96875,16279.1015625]	[16279.1015625,16365.234375]	[16365.234375,16451.3671875]	[16451.3671875,16537.5]	[16537.5,16623.6328125]	[16623.6328125,16709.765625]	[16709.765625,16795.8984375]	[16795.8984375,16882.03125]	[16882.03125,16968.1640625]	[16968.1640625,17054.296875]	[17054.296875,17140.4296875]	[17140.4296875,17226.5625]	[17226.5625,17312.6953125]	[17312.6953125,17398.828125]	[17398.828125,17484.9609375]	[17484.9609375,17571.09375]	[17571.09375,17657.2265625]	[17657.2265625,17743.359375]	[17743.359375,17829.4921875]	[17829.4921875,17915.625]	[17915.625,18001.7578125]	[18001.7578125,18087.890625]	[18087.890625,18174.0234375]	[18174.0234375,18260.15625]	[18260.15625,18346.2890625]	[18346.2890625,18432.421875]	[18432.421875,18518.5546875]	[18518.5546875,18604.6875]	[18604.6875,18690.8203125]	[18690.8203125,18776.953125]	[18776.953125,18863.0859375]	[18863.0859375,18949.21875]	[18949.21875,19035.3515625]	[19035.3515625,19121.484375]	[19121.484375,19207.6171875]	[19207.6171875,19293.75]	[19293.75,19379.8828125]	[19379.8828125,19466.015625]	[19466.015625,19552.1484375]	[19552.1484375,19638.28125]	[19638.28125,19724.4140625]	[19724.4140625,19810.546875]	[19810.546875,19896.6796875]	[19896.6796875,19982.8125]	[19982.8125,20068.9453125]	[20068.9453125,20155.078125]	[20155.078125,20241.2109375]	[20241.2109375,20327.34375]	[20327.34375,20413.4765625]	[20413.4765625,20499.609375]	[20499.609375,20585.7421875]	[20585.7421875,20671.875]	[20671.875,20758.0078125]	[20758.0078125,20844.140625]	[20844.140625,20930.2734375]	[20930.2734375,21016.40625]	[21016.40625,21102.5390625]	[21102.5390625,21188.671875]	[21188.671875,21274.8046875]	[21274.8046875,21360.9375]	[21360.9375,21447.0703125]	[21447.0703125,21533.203125]	[21533.203125,21619.3359375]	[21619.3359375,21705.46875]	[21705.46875,21791.6015625]	[21791.6015625,21877.734375]	[21877.734375,21963.8671875]	[21963.8671875,22050]																																																																																																																																																																																																																																																																																																																																																																																																																																																																																																																																																																																																																																																																																																																																																																																																
[0,43.06640625]	[43.06640625,86.1328125]	[86.1328125,129.19921875]	[129.19921875,172.265625]	[172.265625,215.33203125]	[215.33203125,258.3984375]	[258.3984375,301.46484375]	[301.46484375,344.53125]	[344.53125,387.59765625]	[387.59765625,430.6640625]	[430.6640625,473.73046875]	[473.73046875,516.796875]	[516.796875,559.86328125]	[559.86328125,602.9296875]	[602.9296875,645.99609375]	[645.99609375,689.0625]	[689.0625,732.12890625]	[732.12890625,775.1953125]	[775.1953125,818.26171875]	[818.26171875,861.328125]	[861.328125,904.39453125]	[904.39453125,947.4609375]	[947.4609375,990.52734375]	[990.52734375,1033.59375]	[1033.59375,1076.66015625]	[1076.66015625,1119.7265625]	[1119.7265625,1162.79296875]	[1162.79296875,1205.859375]	[1205.859375,1248.92578125]	[1248.92578125,1291.9921875]	[1291.9921875,1335.05859375]	[1335.05859375,1378.125]	[1378.125,1421.19140625]	[1421.19140625,1464.2578125]	[1464.2578125,1507.32421875]	[1507.32421875,1550.390625]	[1550.390625,1593.45703125]	[1593.45703125,1636.5234375]	[1636.5234375,1679.58984375]	[1679.58984375,1722.65625]	[1722.65625,1765.72265625]	[1765.72265625,1808.7890625]	[1808.7890625,1851.85546875]	[1851.85546875,1894.921875]	[1894.921875,1937.98828125]	[1937.98828125,1981.0546875]	[1981.0546875,2024.12109375]	[2024.12109375,2067.1875]	[2067.1875,2110.25390625]	[2110.25390625,2153.3203125]	[2153.3203125,2196.38671875]	[2196.38671875,2239.453125]	[2239.453125,2282.51953125]	[2282.51953125,2325.5859375]	[2325.5859375,2368.65234375]	[2368.65234375,2411.71875]	[2411.71875,2454.78515625]	[2454.78515625,2497.8515625]	[2497.8515625,2540.91796875]	[2540.91796875,2583.984375]	[2583.984375,2627.05078125]	[2627.05078125,2670.1171875]	[2670.1171875,2713.18359375]	[2713.18359375,2756.25]	[2756.25,2799.31640625]	[2799.31640625,2842.3828125]	[2842.3828125,2885.44921875]	[2885.44921875,2928.515625]	[2928.515625,2971.58203125]	[2971.58203125,3014.6484375]	[3014.6484375,3057.71484375]	[3057.71484375,3100.78125]	[3100.78125,3143.84765625]	[3143.84765625,3186.9140625]	[3186.9140625,3229.98046875]	[3229.98046875,3273.046875]	[3273.046875,3316.11328125]	[3316.11328125,3359.1796875]	[3359.1796875,3402.24609375]	[3402.24609375,3445.3125]	[3445.3125,3488.37890625]	[3488.37890625,3531.4453125]	[3531.4453125,3574.51171875]	[3574.51171875,3617.578125]	[3617.578125,3660.64453125]	[3660.64453125,3703.7109375]	[3703.7109375,3746.77734375]	[3746.77734375,3789.84375]	[3789.84375,3832.91015625]	[3832.91015625,3875.9765625]	[3875.9765625,3919.04296875]	[3919.04296875,3962.109375]	[3962.109375,4005.17578125]	[4005.17578125,4048.2421875]	[4048.2421875,4091.30859375]	[4091.30859375,4134.375]	[4134.375,4177.44140625]	[4177.44140625,4220.5078125]	[4220.5078125,4263.57421875]	[4263.57421875,4306.640625]	[4306.640625,4349.70703125]	[4349.70703125,4392.7734375]	[4392.7734375,4435.83984375]	[4435.83984375,4478.90625]	[4478.90625,4521.97265625]	[4521.97265625,4565.0390625]	[4565.0390625,4608.10546875]	[4608.10546875,4651.171875]	[4651.171875,4694.23828125]	[4694.23828125,4737.3046875]	[4737.3046875,4780.37109375]	[4780.37109375,4823.4375]	[4823.4375,4866.50390625]	[4866.50390625,4909.5703125]	[4909.5703125,4952.63671875]	[4952.63671875,4995.703125]	[4995.703125,5038.76953125]	[5038.76953125,5081.8359375]	[5081.8359375,5124.90234375]	[5124.90234375,5167.96875]	[5167.96875,5211.03515625]	[5211.03515625,5254.1015625]	[5254.1015625,5297.16796875]	[5297.16796875,5340.234375]	[5340.234375,5383.30078125]	[5383.30078125,5426.3671875]	[5426.3671875,5469.43359375]	[5469.43359375,5512.5]	[5512.5,5555.56640625]	[5555.56640625,5598.6328125]	[5598.6328125,5641.69921875]	[5641.69921875,5684.765625]	[5684.765625,5727.83203125]	[5727.83203125,5770.8984375]	[5770.8984375,5813.96484375]	[5813.96484375,5857.03125]	[5857.03125,5900.09765625]	[5900.09765625,5943.1640625]	[5943.1640625,5986.23046875]	[5986.23046875,6029.296875]	[6029.296875,6072.36328125]	[6072.36328125,6115.4296875]	[6115.4296875,6158.49609375]	[6158.49609375,6201.5625]	[6201.5625,6244.62890625]	[6244.62890625,6287.6953125]	[6287.6953125,6330.76171875]	[6330.76171875,6373.828125]	[6373.828125,6416.89453125]	[6416.89453125,6459.9609375]	[6459.9609375,6503.02734375]	[6503.02734375,6546.09375]	[6546.09375,6589.16015625]	[6589.16015625,6632.2265625]	[6632.2265625,6675.29296875]	[6675.29296875,6718.359375]	[6718.359375,6761.42578125]	[6761.42578125,6804.4921875]	[6804.4921875,6847.55859375]	[6847.55859375,6890.625]	[6890.625,6933.69140625]	[6933.69140625,6976.7578125]	[6976.7578125,7019.82421875]	[7019.82421875,7062.890625]	[7062.890625,7105.95703125]	[7105.95703125,7149.0234375]	[7149.0234375,7192.08984375]	[7192.08984375,7235.15625]	[7235.15625,7278.22265625]	[7278.22265625,7321.2890625]	[7321.2890625,7364.35546875]	[7364.35546875,7407.421875]	[7407.421875,7450.48828125]	[7450.48828125,7493.5546875]	[7493.5546875,7536.62109375]	[7536.62109375,7579.6875]	[7579.6875,7622.75390625]	[7622.75390625,7665.8203125]	[7665.8203125,7708.88671875]	[7708.88671875,7751.953125]	[7751.953125,7795.01953125]	[7795.01953125,7838.0859375]	[7838.0859375,7881.15234375]	[7881.15234375,7924.21875]	[7924.21875,7967.28515625]	[7967.28515625,8010.3515625]	[8010.3515625,8053.41796875]	[8053.41796875,8096.484375]	[8096.484375,8139.55078125]	[8139.55078125,8182.6171875]	[8182.6171875,8225.68359375]	[8225.68359375,8268.75]	[8268.75,8311.81640625]	[8311.81640625,8354.8828125]	[8354.8828125,8397.94921875]	[8397.94921875,8441.015625]	[8441.015625,8484.08203125]	[8484.08203125,8527.1484375]	[8527.1484375,8570.21484375]	[8570.21484375,8613.28125]	[8613.28125,8656.34765625]	[8656.34765625,8699.4140625]	[8699.4140625,8742.48046875]	[8742.48046875,8785.546875]	[8785.546875,8828.61328125]	[8828.61328125,8871.6796875]	[8871.6796875,8914.74609375]	[8914.74609375,8957.8125]	[8957.8125,9000.87890625]	[9000.87890625,9043.9453125]	[9043.9453125,9087.01171875]	[9087.01171875,9130.078125]	[9130.078125,9173.14453125]	[9173.14453125,9216.2109375]	[9216.2109375,9259.27734375]	[9259.27734375,9302.34375]	[9302.34375,9345.41015625]	[9345.41015625,9388.4765625]	[9388.4765625,9431.54296875]	[9431.54296875,9474.609375]	[9474.609375,9517.67578125]	[9517.67578125,9560.7421875]	[9560.7421875,9603.80859375]	[9603.80859375,9646.875]	[9646.875,9689.94140625]	[9689.94140625,9733.0078125]	[9733.0078125,9776.07421875]	[9776.07421875,9819.140625]	[9819.140625,9862.20703125]	[9862.20703125,9905.2734375]	[9905.2734375,9948.33984375]	[9948.33984375,9991.40625]	[9991.40625,10034.47265625]	[10034.47265625,10077.5390625]	[10077.5390625,10120.60546875]	[10120.60546875,10163.671875]	[10163.671875,10206.73828125]	[10206.73828125,10249.8046875]	[10249.8046875,10292.87109375]	[10292.87109375,10335.9375]	[10335.9375,10379.00390625]	[10379.00390625,10422.0703125]	[10422.0703125,10465.13671875]	[10465.13671875,10508.203125]	[10508.203125,10551.26953125]	[10551.26953125,10594.3359375]	[10594.3359375,10637.40234375]	[10637.40234375,10680.46875]	[10680.46875,10723.53515625]	[10723.53515625,10766.6015625]	[10766.6015625,10809.66796875]	[10809.66796875,10852.734375]	[10852.734375,10895.80078125]	[10895.80078125,10938.8671875]	[10938.8671875,10981.93359375]	[10981.93359375,11025]	[11025,11068.06640625]	[11068.06640625,11111.1328125]	[11111.1328125,11154.19921875]	[11154.19921875,11197.265625]	[11197.265625,11240.33203125]	[11240.33203125,11283.3984375]	[11283.3984375,11326.46484375]	[11326.46484375,11369.53125]	[11369.53125,11412.59765625]	[11412.59765625,11455.6640625]	[11455.6640625,11498.73046875]	[11498.73046875,11541.796875]	[11541.796875,11584.86328125]	[11584.86328125,11627.9296875]	[11627.9296875,11670.99609375]	[11670.99609375,11714.0625]	[11714.0625,11757.12890625]	[11757.12890625,11800.1953125]	[11800.1953125,11843.26171875]	[11843.26171875,11886.328125]	[11886.328125,11929.39453125]	[11929.39453125,11972.4609375]	[11972.4609375,12015.52734375]	[12015.52734375,12058.59375]	[12058.59375,12101.66015625]	[12101.66015625,12144.7265625]	[12144.7265625,12187.79296875]	[12187.79296875,12230.859375]	[12230.859375,12273.92578125]	[12273.92578125,12316.9921875]	[12316.9921875,12360.05859375]	[12360.05859375,12403.125]	[12403.125,12446.19140625]	[12446.19140625,12489.2578125]	[12489.2578125,12532.32421875]	[12532.32421875,12575.390625]	[12575.390625,12618.45703125]	[12618.45703125,12661.5234375]	[12661.5234375,12704.58984375]	[12704.58984375,12747.65625]	[12747.65625,12790.72265625]	[12790.72265625,12833.7890625]	[12833.7890625,12876.85546875]	[12876.85546875,12919.921875]	[12919.921875,12962.98828125]	[12962.98828125,13006.0546875]	[13006.0546875,13049.12109375]	[13049.12109375,13092.1875]	[13092.1875,13135.25390625]	[13135.25390625,13178.3203125]	[13178.3203125,13221.38671875]	[13221.38671875,13264.453125]	[13264.453125,13307.51953125]	[13307.51953125,13350.5859375]	[13350.5859375,13393.65234375]	[13393.65234375,13436.71875]	[13436.71875,13479.78515625]	[13479.78515625,13522.8515625]	[13522.8515625,13565.91796875]	[13565.91796875,13608.984375]	[13608.984375,13652.05078125]	[13652.05078125,13695.1171875]	[13695.1171875,13738.18359375]	[13738.18359375,13781.25]	[13781.25,13824.31640625]	[13824.31640625,13867.3828125]	[13867.3828125,13910.44921875]	[13910.44921875,13953.515625]	[13953.515625,13996.58203125]	[13996.58203125,14039.6484375]	[14039.6484375,14082.71484375]	[14082.71484375,14125.78125]	[14125.78125,14168.84765625]	[14168.84765625,14211.9140625]	[14211.9140625,14254.98046875]	[14254.98046875,14298.046875]	[14298.046875,14341.11328125]	[14341.11328125,14384.1796875]	[14384.1796875,14427.24609375]	[14427.24609375,14470.3125]	[14470.3125,14513.37890625]	[14513.37890625,14556.4453125]	[14556.4453125,14599.51171875]	[14599.51171875,14642.578125]	[14642.578125,14685.64453125]	[14685.64453125,14728.7109375]	[14728.7109375,14771.77734375]	[14771.77734375,14814.84375]	[14814.84375,14857.91015625]	[14857.91015625,14900.9765625]	[14900.9765625,14944.04296875]	[14944.04296875,14987.109375]	[14987.109375,15030.17578125]	[15030.17578125,15073.2421875]	[15073.2421875,15116.30859375]	[15116.30859375,15159.375]	[15159.375,15202.44140625]	[15202.44140625,15245.5078125]	[15245.5078125,15288.57421875]	[15288.57421875,15331.640625]	[15331.640625,15374.70703125]	[15374.70703125,15417.7734375]	[15417.7734375,15460.83984375]	[15460.83984375,15503.90625]	[15503.90625,15546.97265625]	[15546.97265625,15590.0390625]	[15590.0390625,15633.10546875]	[15633.10546875,15676.171875]	[15676.171875,15719.23828125]	[15719.23828125,15762.3046875]	[15762.3046875,15805.37109375]	[15805.37109375,15848.4375]	[15848.4375,15891.50390625]	[15891.50390625,15934.5703125]	[15934.5703125,15977.63671875]	[15977.63671875,16020.703125]	[16020.703125,16063.76953125]	[16063.76953125,16106.8359375]	[16106.8359375,16149.90234375]	[16149.90234375,16192.96875]	[16192.96875,16236.03515625]	[16236.03515625,16279.1015625]	[16279.1015625,16322.16796875]	[16322.16796875,16365.234375]	[16365.234375,16408.30078125]	[16408.30078125,16451.3671875]	[16451.3671875,16494.43359375]	[16494.43359375,16537.5]	[16537.5,16580.56640625]	[16580.56640625,16623.6328125]	[16623.6328125,16666.69921875]	[16666.69921875,16709.765625]	[16709.765625,16752.83203125]	[16752.83203125,16795.8984375]	[16795.8984375,16838.96484375]	[16838.96484375,16882.03125]	[16882.03125,16925.09765625]	[16925.09765625,16968.1640625]	[16968.1640625,17011.23046875]	[17011.23046875,17054.296875]	[17054.296875,17097.36328125]	[17097.36328125,17140.4296875]	[17140.4296875,17183.49609375]	[17183.49609375,17226.5625]	[17226.5625,17269.62890625]	[17269.62890625,17312.6953125]	[17312.6953125,17355.76171875]	[17355.76171875,17398.828125]	[17398.828125,17441.89453125]	[17441.89453125,17484.9609375]	[17484.9609375,17528.02734375]	[17528.02734375,17571.09375]	[17571.09375,17614.16015625]	[17614.16015625,17657.2265625]	[17657.2265625,17700.29296875]	[17700.29296875,17743.359375]	[17743.359375,17786.42578125]	[17786.42578125,17829.4921875]	[17829.4921875,17872.55859375]	[17872.55859375,17915.625]	[17915.625,17958.69140625]	[17958.69140625,18001.7578125]	[18001.7578125,18044.82421875]	[18044.82421875,18087.890625]	[18087.890625,18130.95703125]	[18130.95703125,18174.0234375]	[18174.0234375,18217.08984375]	[18217.08984375,18260.15625]	[18260.15625,18303.22265625]	[18303.22265625,18346.2890625]	[18346.2890625,18389.35546875]	[18389.35546875,18432.421875]	[18432.421875,18475.48828125]	[18475.48828125,18518.5546875]	[18518.5546875,18561.62109375]	[18561.62109375,18604.6875]	[18604.6875,18647.75390625]	[18647.75390625,18690.8203125]	[18690.8203125,18733.88671875]	[18733.88671875,18776.953125]	[18776.953125,18820.01953125]	[18820.01953125,18863.0859375]	[18863.0859375,18906.15234375]	[18906.15234375,18949.21875]	[18949.21875,18992.28515625]	[18992.28515625,19035.3515625]	[19035.3515625,19078.41796875]	[19078.41796875,19121.484375]	[19121.484375,19164.55078125]	[19164.55078125,19207.6171875]	[19207.6171875,19250.68359375]	[19250.68359375,19293.75]	[19293.75,19336.81640625]	[19336.81640625,19379.8828125]	[19379.8828125,19422.94921875]	[19422.94921875,19466.015625]	[19466.015625,19509.08203125]	[19509.08203125,19552.1484375]	[19552.1484375,19595.21484375]	[19595.21484375,19638.28125]	[19638.28125,19681.34765625]	[19681.34765625,19724.4140625]	[19724.4140625,19767.48046875]	[19767.48046875,19810.546875]	[19810.546875,19853.61328125]	[19853.61328125,19896.6796875]	[19896.6796875,19939.74609375]	[19939.74609375,19982.8125]	[19982.8125,20025.87890625]	[20025.87890625,20068.9453125]	[20068.9453125,20112.01171875]	[20112.01171875,20155.078125]	[20155.078125,20198.14453125]	[20198.14453125,20241.2109375]	[20241.2109375,20284.27734375]	[20284.27734375,20327.34375]	[20327.34375,20370.41015625]	[20370.41015625,20413.4765625]	[20413.4765625,20456.54296875]	[20456.54296875,20499.609375]	[20499.609375,20542.67578125]	[20542.67578125,20585.7421875]	[20585.7421875,20628.80859375]	[20628.80859375,20671.875]	[20671.875,20714.94140625]	[20714.94140625,20758.0078125]	[20758.0078125,20801.07421875]	[20801.07421875,20844.140625]	[20844.140625,20887.20703125]	[20887.20703125,20930.2734375]	[20930.2734375,20973.33984375]	[20973.33984375,21016.40625]	[21016.40625,21059.47265625]	[21059.47265625,21102.5390625]	[21102.5390625,21145.60546875]	[21145.60546875,21188.671875]	[21188.671875,21231.73828125]	[21231.73828125,21274.8046875]	[21274.8046875,21317.87109375]	[21317.87109375,21360.9375]	[21360.9375,21404.00390625]	[21404.00390625,21447.0703125]	[21447.0703125,21490.13671875]	[21490.13671875,21533.203125]	[21533.203125,21576.26953125]	[21576.26953125,21619.3359375]	[21619.3359375,21662.40234375]	[21662.40234375,21705.46875]	[21705.46875,21748.53515625]	[21748.53515625,21791.6015625]	[21791.6015625,21834.66796875]	[21834.66796875,21877.734375]	[21877.734375,21920.80078125]	[21920.80078125,21963.8671875]	[21963.8671875,22006.93359375]	[22006.93359375,22050]																																																																																																																																																																																																																																																																																																																																																																																																																																																																																																																																
[0,21.533203125]	[21.533203125,43.06640625]	[43.06640625,64.599609375]	[64.599609375,86.1328125]	[86.1328125,107.666015625]	[107.666015625,129.19921875]	[129.19921875,150.732421875]	[150.732421875,172.265625]	[172.265625,193.798828125]	[193.798828125,215.33203125]	[215.33203125,236.865234375]	[236.865234375,258.3984375]	[258.3984375,279.931640625]	[279.931640625,301.46484375]	[301.46484375,322.998046875]	[322.998046875,344.53125]	[344.53125,366.064453125]	[366.064453125,387.59765625]	[387.59765625,409.130859375]	[409.130859375,430.6640625]	[430.6640625,452.197265625]	[452.197265625,473.73046875]	[473.73046875,495.263671875]	[495.263671875,516.796875]	[516.796875,538.330078125]	[538.330078125,559.86328125]	[559.86328125,581.396484375]	[581.396484375,602.9296875]	[602.9296875,624.462890625]	[624.462890625,645.99609375]	[645.99609375,667.529296875]	[667.529296875,689.0625]	[689.0625,710.595703125]	[710.595703125,732.12890625]	[732.12890625,753.662109375]	[753.662109375,775.1953125]	[775.1953125,796.728515625]	[796.728515625,818.26171875]	[818.26171875,839.794921875]	[839.794921875,861.328125]	[861.328125,882.861328125]	[882.861328125,904.39453125]	[904.39453125,925.927734375]	[925.927734375,947.4609375]	[947.4609375,968.994140625]	[968.994140625,990.52734375]	[990.52734375,1012.060546875]	[1012.060546875,1033.59375]	[1033.59375,1055.126953125]	[1055.126953125,1076.66015625]	[1076.66015625,1098.193359375]	[1098.193359375,1119.7265625]	[1119.7265625,1141.259765625]	[1141.259765625,1162.79296875]	[1162.79296875,1184.326171875]	[1184.326171875,1205.859375]	[1205.859375,1227.392578125]	[1227.392578125,1248.92578125]	[1248.92578125,1270.458984375]	[1270.458984375,1291.9921875]	[1291.9921875,1313.525390625]	[1313.525390625,1335.05859375]	[1335.05859375,1356.591796875]	[1356.591796875,1378.125]	[1378.125,1399.658203125]	[1399.658203125,1421.19140625]	[1421.19140625,1442.724609375]	[1442.724609375,1464.2578125]	[1464.2578125,1485.791015625]	[1485.791015625,1507.32421875]	[1507.32421875,1528.857421875]	[1528.857421875,1550.390625]	[1550.390625,1571.923828125]	[1571.923828125,1593.45703125]	[1593.45703125,1614.990234375]	[1614.990234375,1636.5234375]	[1636.5234375,1658.056640625]	[1658.056640625,1679.58984375]	[1679.58984375,1701.123046875]	[1701.123046875,1722.65625]	[1722.65625,1744.189453125]	[1744.189453125,1765.72265625]	[1765.72265625,1787.255859375]	[1787.255859375,1808.7890625]	[1808.7890625,1830.322265625]	[1830.322265625,1851.85546875]	[1851.85546875,1873.388671875]	[1873.388671875,1894.921875]	[1894.921875,1916.455078125]	[1916.455078125,1937.98828125]	[1937.98828125,1959.521484375]	[1959.521484375,1981.0546875]	[1981.0546875,2002.587890625]	[2002.587890625,2024.12109375]	[2024.12109375,2045.654296875]	[2045.654296875,2067.1875]	[2067.1875,2088.720703125]	[2088.720703125,2110.25390625]	[2110.25390625,2131.787109375]	[2131.787109375,2153.3203125]	[2153.3203125,2174.853515625]	[2174.853515625,2196.38671875]	[2196.38671875,2217.919921875]	[2217.919921875,2239.453125]	[2239.453125,2260.986328125]	[2260.986328125,2282.51953125]	[2282.51953125,2304.052734375]	[2304.052734375,2325.5859375]	[2325.5859375,2347.119140625]	[2347.119140625,2368.65234375]	[2368.65234375,2390.185546875]	[2390.185546875,2411.71875]	[2411.71875,2433.251953125]	[2433.251953125,2454.78515625]	[2454.78515625,2476.318359375]	[2476.318359375,2497.8515625]	[2497.8515625,2519.384765625]	[2519.384765625,2540.91796875]	[2540.91796875,2562.451171875]	[2562.451171875,2583.984375]	[2583.984375,2605.517578125]	[2605.517578125,2627.05078125]	[2627.05078125,2648.583984375]	[2648.583984375,2670.1171875]	[2670.1171875,2691.650390625]	[2691.650390625,2713.18359375]	[2713.18359375,2734.716796875]	[2734.716796875,2756.25]	[2756.25,2777.783203125]	[2777.783203125,2799.31640625]	[2799.31640625,2820.849609375]	[2820.849609375,2842.3828125]	[2842.3828125,2863.916015625]	[2863.916015625,2885.44921875]	[2885.44921875,2906.982421875]	[2906.982421875,2928.515625]	[2928.515625,2950.048828125]	[2950.048828125,2971.58203125]	[2971.58203125,2993.115234375]	[2993.115234375,3014.6484375]	[3014.6484375,3036.181640625]	[3036.181640625,3057.71484375]	[3057.71484375,3079.248046875]	[3079.248046875,3100.78125]	[3100.78125,3122.314453125]	[3122.314453125,3143.84765625]	[3143.84765625,3165.380859375]	[3165.380859375,3186.9140625]	[3186.9140625,3208.447265625]	[3208.447265625,3229.98046875]	[3229.98046875,3251.513671875]	[3251.513671875,3273.046875]	[3273.046875,3294.580078125]	[3294.580078125,3316.11328125]	[3316.11328125,3337.646484375]	[3337.646484375,3359.1796875]	[3359.1796875,3380.712890625]	[3380.712890625,3402.24609375]	[3402.24609375,3423.779296875]	[3423.779296875,3445.3125]	[3445.3125,3466.845703125]	[3466.845703125,3488.37890625]	[3488.37890625,3509.912109375]	[3509.912109375,3531.4453125]	[3531.4453125,3552.978515625]	[3552.978515625,3574.51171875]	[3574.51171875,3596.044921875]	[3596.044921875,3617.578125]	[3617.578125,3639.111328125]	[3639.111328125,3660.64453125]	[3660.64453125,3682.177734375]	[3682.177734375,3703.7109375]	[3703.7109375,3725.244140625]	[3725.244140625,3746.77734375]	[3746.77734375,3768.310546875]	[3768.310546875,3789.84375]	[3789.84375,3811.376953125]	[3811.376953125,3832.91015625]	[3832.91015625,3854.443359375]	[3854.443359375,3875.9765625]	[3875.9765625,3897.509765625]	[3897.509765625,3919.04296875]	[3919.04296875,3940.576171875]	[3940.576171875,3962.109375]	[3962.109375,3983.642578125]	[3983.642578125,4005.17578125]	[4005.17578125,4026.708984375]	[4026.708984375,4048.2421875]	[4048.2421875,4069.775390625]	[4069.775390625,4091.30859375]	[4091.30859375,4112.841796875]	[4112.841796875,4134.375]	[4134.375,4155.908203125]	[4155.908203125,4177.44140625]	[4177.44140625,4198.974609375]	[4198.974609375,4220.5078125]	[4220.5078125,4242.041015625]	[4242.041015625,4263.57421875]	[4263.57421875,4285.107421875]	[4285.107421875,4306.640625]	[4306.640625,4328.173828125]	[4328.173828125,4349.70703125]	[4349.70703125,4371.240234375]	[4371.240234375,4392.7734375]	[4392.7734375,4414.306640625]	[4414.306640625,4435.83984375]	[4435.83984375,4457.373046875]	[4457.373046875,4478.90625]	[4478.90625,4500.439453125]	[4500.439453125,4521.97265625]	[4521.97265625,4543.505859375]	[4543.505859375,4565.0390625]	[4565.0390625,4586.572265625]	[4586.572265625,4608.10546875]	[4608.10546875,4629.638671875]	[4629.638671875,4651.171875]	[4651.171875,4672.705078125]	[4672.705078125,4694.23828125]	[4694.23828125,4715.771484375]	[4715.771484375,4737.3046875]	[4737.3046875,4758.837890625]	[4758.837890625,4780.37109375]	[4780.37109375,4801.904296875]	[4801.904296875,4823.4375]	[4823.4375,4844.970703125]	[4844.970703125,4866.50390625]	[4866.50390625,4888.037109375]	[4888.037109375,4909.5703125]	[4909.5703125,4931.103515625]	[4931.103515625,4952.63671875]	[4952.63671875,4974.169921875]	[4974.169921875,4995.703125]	[4995.703125,5017.236328125]	[5017.236328125,5038.76953125]	[5038.76953125,5060.302734375]	[5060.302734375,5081.8359375]	[5081.8359375,5103.369140625]	[5103.369140625,5124.90234375]	[5124.90234375,5146.435546875]	[5146.435546875,5167.96875]	[5167.96875,5189.501953125]	[5189.501953125,5211.03515625]	[5211.03515625,5232.568359375]	[5232.568359375,5254.1015625]	[5254.1015625,5275.634765625]	[5275.634765625,5297.16796875]	[5297.16796875,5318.701171875]	[5318.701171875,5340.234375]	[5340.234375,5361.767578125]	[5361.767578125,5383.30078125]	[5383.30078125,5404.833984375]	[5404.833984375,5426.3671875]	[5426.3671875,5447.900390625]	[5447.900390625,5469.43359375]	[5469.43359375,5490.966796875]	[5490.966796875,5512.5]	[5512.5,5534.033203125]	[5534.033203125,5555.56640625]	[5555.56640625,5577.099609375]	[5577.099609375,5598.6328125]	[5598.6328125,5620.166015625]	[5620.166015625,5641.69921875]	[5641.69921875,5663.232421875]	[5663.232421875,5684.765625]	[5684.765625,5706.298828125]	[5706.298828125,5727.83203125]	[5727.83203125,5749.365234375]	[5749.365234375,5770.8984375]	[5770.8984375,5792.431640625]	[5792.431640625,5813.96484375]	[5813.96484375,5835.498046875]	[5835.498046875,5857.03125]	[5857.03125,5878.564453125]	[5878.564453125,5900.09765625]	[5900.09765625,5921.630859375]	[5921.630859375,5943.1640625]	[5943.1640625,5964.697265625]	[5964.697265625,5986.23046875]	[5986.23046875,6007.763671875]	[6007.763671875,6029.296875]	[6029.296875,6050.830078125]	[6050.830078125,6072.36328125]	[6072.36328125,6093.896484375]	[6093.896484375,6115.4296875]	[6115.4296875,6136.962890625]	[6136.962890625,6158.49609375]	[6158.49609375,6180.029296875]	[6180.029296875,6201.5625]	[6201.5625,6223.095703125]	[6223.095703125,6244.62890625]	[6244.62890625,6266.162109375]	[6266.162109375,6287.6953125]	[6287.6953125,6309.228515625]	[6309.228515625,6330.76171875]	[6330.76171875,6352.294921875]	[6352.294921875,6373.828125]	[6373.828125,6395.361328125]	[6395.361328125,6416.89453125]	[6416.89453125,6438.427734375]	[6438.427734375,6459.9609375]	[6459.9609375,6481.494140625]	[6481.494140625,6503.02734375]	[6503.02734375,6524.560546875]	[6524.560546875,6546.09375]	[6546.09375,6567.626953125]	[6567.626953125,6589.16015625]	[6589.16015625,6610.693359375]	[6610.693359375,6632.2265625]	[6632.2265625,6653.759765625]	[6653.759765625,6675.29296875]	[6675.29296875,6696.826171875]	[6696.826171875,6718.359375]	[6718.359375,6739.892578125]	[6739.892578125,6761.42578125]	[6761.42578125,6782.958984375]	[6782.958984375,6804.4921875]	[6804.4921875,6826.025390625]	[6826.025390625,6847.55859375]	[6847.55859375,6869.091796875]	[6869.091796875,6890.625]	[6890.625,6912.158203125]	[6912.158203125,6933.69140625]	[6933.69140625,6955.224609375]	[6955.224609375,6976.7578125]	[6976.7578125,6998.291015625]	[6998.291015625,7019.82421875]	[7019.82421875,7041.357421875]	[7041.357421875,7062.890625]	[7062.890625,7084.423828125]	[7084.423828125,7105.95703125]	[7105.95703125,7127.490234375]	[7127.490234375,7149.0234375]	[7149.0234375,7170.556640625]	[7170.556640625,7192.08984375]	[7192.08984375,7213.623046875]	[7213.623046875,7235.15625]	[7235.15625,7256.689453125]	[7256.689453125,7278.22265625]	[7278.22265625,7299.755859375]	[7299.755859375,7321.2890625]	[7321.2890625,7342.822265625]	[7342.822265625,7364.35546875]	[7364.35546875,7385.888671875]	[7385.888671875,7407.421875]	[7407.421875,7428.955078125]	[7428.955078125,7450.48828125]	[7450.48828125,7472.021484375]	[7472.021484375,7493.5546875]	[7493.5546875,7515.087890625]	[7515.087890625,7536.62109375]	[7536.62109375,7558.154296875]	[7558.154296875,7579.6875]	[7579.6875,7601.220703125]	[7601.220703125,7622.75390625]	[7622.75390625,7644.287109375]	[7644.287109375,7665.8203125]	[7665.8203125,7687.353515625]	[7687.353515625,7708.88671875]	[7708.88671875,7730.419921875]	[7730.419921875,7751.953125]	[7751.953125,7773.486328125]	[7773.486328125,7795.01953125]	[7795.01953125,7816.552734375]	[7816.552734375,7838.0859375]	[7838.0859375,7859.619140625]	[7859.619140625,7881.15234375]	[7881.15234375,7902.685546875]	[7902.685546875,7924.21875]	[7924.21875,7945.751953125]	[7945.751953125,7967.28515625]	[7967.28515625,7988.818359375]	[7988.818359375,8010.3515625]	[8010.3515625,8031.884765625]	[8031.884765625,8053.41796875]	[8053.41796875,8074.951171875]	[8074.951171875,8096.484375]	[8096.484375,8118.017578125]	[8118.017578125,8139.55078125]	[8139.55078125,8161.083984375]	[8161.083984375,8182.6171875]	[8182.6171875,8204.150390625]	[8204.150390625,8225.68359375]	[8225.68359375,8247.216796875]	[8247.216796875,8268.75]	[8268.75,8290.283203125]	[8290.283203125,8311.81640625]	[8311.81640625,8333.349609375]	[8333.349609375,8354.8828125]	[8354.8828125,8376.416015625]	[8376.416015625,8397.94921875]	[8397.94921875,8419.482421875]	[8419.482421875,8441.015625]	[8441.015625,8462.548828125]	[8462.548828125,8484.08203125]	[8484.08203125,8505.615234375]	[8505.615234375,8527.1484375]	[8527.1484375,8548.681640625]	[8548.681640625,8570.21484375]	[8570.21484375,8591.748046875]	[8591.748046875,8613.28125]	[8613.28125,8634.814453125]	[8634.814453125,8656.34765625]	[8656.34765625,8677.880859375]	[8677.880859375,8699.4140625]	[8699.4140625,8720.947265625]	[8720.947265625,8742.48046875]	[8742.48046875,8764.013671875]	[8764.013671875,8785.546875]	[8785.546875,8807.080078125]	[8807.080078125,8828.61328125]	[8828.61328125,8850.146484375]	[8850.146484375,8871.6796875]	[8871.6796875,8893.212890625]	[8893.212890625,8914.74609375]	[8914.74609375,8936.279296875]	[8936.279296875,8957.8125]	[8957.8125,8979.345703125]	[8979.345703125,9000.87890625]	[9000.87890625,9022.412109375]	[9022.412109375,9043.9453125]	[9043.9453125,9065.478515625]	[9065.478515625,9087.01171875]	[9087.01171875,9108.544921875]	[9108.544921875,9130.078125]	[9130.078125,9151.611328125]	[9151.611328125,9173.14453125]	[9173.14453125,9194.677734375]	[9194.677734375,9216.2109375]	[9216.2109375,9237.744140625]	[9237.744140625,9259.27734375]	[9259.27734375,9280.810546875]	[9280.810546875,9302.34375]	[9302.34375,9323.876953125]	[9323.876953125,9345.41015625]	[9345.41015625,9366.943359375]	[9366.943359375,9388.4765625]	[9388.4765625,9410.009765625]	[9410.009765625,9431.54296875]	[9431.54296875,9453.076171875]	[9453.076171875,9474.609375]	[9474.609375,9496.142578125]	[9496.142578125,9517.67578125]	[9517.67578125,9539.208984375]	[9539.208984375,9560.7421875]	[9560.7421875,9582.275390625]	[9582.275390625,9603.80859375]	[9603.80859375,9625.341796875]	[9625.341796875,9646.875]	[9646.875,9668.408203125]	[9668.408203125,9689.94140625]	[9689.94140625,9711.474609375]	[9711.474609375,9733.0078125]	[9733.0078125,9754.541015625]	[9754.541015625,9776.07421875]	[9776.07421875,9797.607421875]	[9797.607421875,9819.140625]	[9819.140625,9840.673828125]	[9840.673828125,9862.20703125]	[9862.20703125,9883.740234375]	[9883.740234375,9905.2734375]	[9905.2734375,9926.806640625]	[9926.806640625,9948.33984375]	[9948.33984375,9969.873046875]	[9969.873046875,9991.40625]	[9991.40625,10012.939453125]	[10012.939453125,10034.47265625]	[10034.47265625,10056.005859375]	[10056.005859375,10077.5390625]	[10077.5390625,10099.072265625]	[10099.072265625,10120.60546875]	[10120.60546875,10142.138671875]	[10142.138671875,10163.671875]	[10163.671875,10185.205078125]	[10185.205078125,10206.73828125]	[10206.73828125,10228.271484375]	[10228.271484375,10249.8046875]	[10249.8046875,10271.337890625]	[10271.337890625,10292.87109375]	[10292.87109375,10314.404296875]	[10314.404296875,10335.9375]	[10335.9375,10357.470703125]	[10357.470703125,10379.00390625]	[10379.00390625,10400.537109375]	[10400.537109375,10422.0703125]	[10422.0703125,10443.603515625]	[10443.603515625,10465.13671875]	[10465.13671875,10486.669921875]	[10486.669921875,10508.203125]	[10508.203125,10529.736328125]	[10529.736328125,10551.26953125]	[10551.26953125,10572.802734375]	[10572.802734375,10594.3359375]	[10594.3359375,10615.869140625]	[10615.869140625,10637.40234375]	[10637.40234375,10658.935546875]	[10658.935546875,10680.46875]	[10680.46875,10702.001953125]	[10702.001953125,10723.53515625]	[10723.53515625,10745.068359375]	[10745.068359375,10766.6015625]	[10766.6015625,10788.134765625]	[10788.134765625,10809.66796875]	[10809.66796875,10831.201171875]	[10831.201171875,10852.734375]	[10852.734375,10874.267578125]	[10874.267578125,10895.80078125]	[10895.80078125,10917.333984375]	[10917.333984375,10938.8671875]	[10938.8671875,10960.400390625]	[10960.400390625,10981.93359375]	[10981.93359375,11003.466796875]	[11003.466796875,11025]	[11025,11046.533203125]	[11046.533203125,11068.06640625]	[11068.06640625,11089.599609375]	[11089.599609375,11111.1328125]	[11111.1328125,11132.666015625]	[11132.666015625,11154.19921875]	[11154.19921875,11175.732421875]	[11175.732421875,11197.265625]	[11197.265625,11218.798828125]	[11218.798828125,11240.33203125]	[11240.33203125,11261.865234375]	[11261.865234375,11283.3984375]	[11283.3984375,11304.931640625]	[11304.931640625,11326.46484375]	[11326.46484375,11347.998046875]	[11347.998046875,11369.53125]	[11369.53125,11391.064453125]	[11391.064453125,11412.59765625]	[11412.59765625,11434.130859375]	[11434.130859375,11455.6640625]	[11455.6640625,11477.197265625]	[11477.197265625,11498.73046875]	[11498.73046875,11520.263671875]	[11520.263671875,11541.796875]	[11541.796875,11563.330078125]	[11563.330078125,11584.86328125]	[11584.86328125,11606.396484375]	[11606.396484375,11627.9296875]	[11627.9296875,11649.462890625]	[11649.462890625,11670.99609375]	[11670.99609375,11692.529296875]	[11692.529296875,11714.0625]	[11714.0625,11735.595703125]	[11735.595703125,11757.12890625]	[11757.12890625,11778.662109375]	[11778.662109375,11800.1953125]	[11800.1953125,11821.728515625]	[11821.728515625,11843.26171875]	[11843.26171875,11864.794921875]	[11864.794921875,11886.328125]	[11886.328125,11907.861328125]	[11907.861328125,11929.39453125]	[11929.39453125,11950.927734375]	[11950.927734375,11972.4609375]	[11972.4609375,11993.994140625]	[11993.994140625,12015.52734375]	[12015.52734375,12037.060546875]	[12037.060546875,12058.59375]	[12058.59375,12080.126953125]	[12080.126953125,12101.66015625]	[12101.66015625,12123.193359375]	[12123.193359375,12144.7265625]	[12144.7265625,12166.259765625]	[12166.259765625,12187.79296875]	[12187.79296875,12209.326171875]	[12209.326171875,12230.859375]	[12230.859375,12252.392578125]	[12252.392578125,12273.92578125]	[12273.92578125,12295.458984375]	[12295.458984375,12316.9921875]	[12316.9921875,12338.525390625]	[12338.525390625,12360.05859375]	[12360.05859375,12381.591796875]	[12381.591796875,12403.125]	[12403.125,12424.658203125]	[12424.658203125,12446.19140625]	[12446.19140625,12467.724609375]	[12467.724609375,12489.2578125]	[12489.2578125,12510.791015625]	[12510.791015625,12532.32421875]	[12532.32421875,12553.857421875]	[12553.857421875,12575.390625]	[12575.390625,12596.923828125]	[12596.923828125,12618.45703125]	[12618.45703125,12639.990234375]	[12639.990234375,12661.5234375]	[12661.5234375,12683.056640625]	[12683.056640625,12704.58984375]	[12704.58984375,12726.123046875]	[12726.123046875,12747.65625]	[12747.65625,12769.189453125]	[12769.189453125,12790.72265625]	[12790.72265625,12812.255859375]	[12812.255859375,12833.7890625]	[12833.7890625,12855.322265625]	[12855.322265625,12876.85546875]	[12876.85546875,12898.388671875]	[12898.388671875,12919.921875]	[12919.921875,12941.455078125]	[12941.455078125,12962.98828125]	[12962.98828125,12984.521484375]	[12984.521484375,13006.0546875]	[13006.0546875,13027.587890625]	[13027.587890625,13049.12109375]	[13049.12109375,13070.654296875]	[13070.654296875,13092.1875]	[13092.1875,13113.720703125]	[13113.720703125,13135.25390625]	[13135.25390625,13156.787109375]	[13156.787109375,13178.3203125]	[13178.3203125,13199.853515625]	[13199.853515625,13221.38671875]	[13221.38671875,13242.919921875]	[13242.919921875,13264.453125]	[13264.453125,13285.986328125]	[13285.986328125,13307.51953125]	[13307.51953125,13329.052734375]	[13329.052734375,13350.5859375]	[13350.5859375,13372.119140625]	[13372.119140625,13393.65234375]	[13393.65234375,13415.185546875]	[13415.185546875,13436.71875]	[13436.71875,13458.251953125]	[13458.251953125,13479.78515625]	[13479.78515625,13501.318359375]	[13501.318359375,13522.8515625]	[13522.8515625,13544.384765625]	[13544.384765625,13565.91796875]	[13565.91796875,13587.451171875]	[13587.451171875,13608.984375]	[13608.984375,13630.517578125]	[13630.517578125,13652.05078125]	[13652.05078125,13673.583984375]	[13673.583984375,13695.1171875]	[13695.1171875,13716.650390625]	[13716.650390625,13738.18359375]	[13738.18359375,13759.716796875]	[13759.716796875,13781.25]	[13781.25,13802.783203125]	[13802.783203125,13824.31640625]	[13824.31640625,13845.849609375]	[13845.849609375,13867.3828125]	[13867.3828125,13888.916015625]	[13888.916015625,13910.44921875]	[13910.44921875,13931.982421875]	[13931.982421875,13953.515625]	[13953.515625,13975.048828125]	[13975.048828125,13996.58203125]	[13996.58203125,14018.115234375]	[14018.115234375,14039.6484375]	[14039.6484375,14061.181640625]	[14061.181640625,14082.71484375]	[14082.71484375,14104.248046875]	[14104.248046875,14125.78125]	[14125.78125,14147.314453125]	[14147.314453125,14168.84765625]	[14168.84765625,14190.380859375]	[14190.380859375,14211.9140625]	[14211.9140625,14233.447265625]	[14233.447265625,14254.98046875]	[14254.98046875,14276.513671875]	[14276.513671875,14298.046875]	[14298.046875,14319.580078125]	[14319.580078125,14341.11328125]	[14341.11328125,14362.646484375]	[14362.646484375,14384.1796875]	[14384.1796875,14405.712890625]	[14405.712890625,14427.24609375]	[14427.24609375,14448.779296875]	[14448.779296875,14470.3125]	[14470.3125,14491.845703125]	[14491.845703125,14513.37890625]	[14513.37890625,14534.912109375]	[14534.912109375,14556.4453125]	[14556.4453125,14577.978515625]	[14577.978515625,14599.51171875]	[14599.51171875,14621.044921875]	[14621.044921875,14642.578125]	[14642.578125,14664.111328125]	[14664.111328125,14685.64453125]	[14685.64453125,14707.177734375]	[14707.177734375,14728.7109375]	[14728.7109375,14750.244140625]	[14750.244140625,14771.77734375]	[14771.77734375,14793.310546875]	[14793.310546875,14814.84375]	[14814.84375,14836.376953125]	[14836.376953125,14857.91015625]	[14857.91015625,14879.443359375]	[14879.443359375,14900.9765625]	[14900.9765625,14922.509765625]	[14922.509765625,14944.04296875]	[14944.04296875,14965.576171875]	[14965.576171875,14987.109375]	[14987.109375,15008.642578125]	[15008.642578125,15030.17578125]	[15030.17578125,15051.708984375]	[15051.708984375,15073.2421875]	[15073.2421875,15094.775390625]	[15094.775390625,15116.30859375]	[15116.30859375,15137.841796875]	[15137.841796875,15159.375]	[15159.375,15180.908203125]	[15180.908203125,15202.44140625]	[15202.44140625,15223.974609375]	[15223.974609375,15245.5078125]	[15245.5078125,15267.041015625]	[15267.041015625,15288.57421875]	[15288.57421875,15310.107421875]	[15310.107421875,15331.640625]	[15331.640625,15353.173828125]	[15353.173828125,15374.70703125]	[15374.70703125,15396.240234375]	[15396.240234375,15417.7734375]	[15417.7734375,15439.306640625]	[15439.306640625,15460.83984375]	[15460.83984375,15482.373046875]	[15482.373046875,15503.90625]	[15503.90625,15525.439453125]	[15525.439453125,15546.97265625]	[15546.97265625,15568.505859375]	[15568.505859375,15590.0390625]	[15590.0390625,15611.572265625]	[15611.572265625,15633.10546875]	[15633.10546875,15654.638671875]	[15654.638671875,15676.171875]	[15676.171875,15697.705078125]	[15697.705078125,15719.23828125]	[15719.23828125,15740.771484375]	[15740.771484375,15762.3046875]	[15762.3046875,15783.837890625]	[15783.837890625,15805.37109375]	[15805.37109375,15826.904296875]	[15826.904296875,15848.4375]	[15848.4375,15869.970703125]	[15869.970703125,15891.50390625]	[15891.50390625,15913.037109375]	[15913.037109375,15934.5703125]	[15934.5703125,15956.103515625]	[15956.103515625,15977.63671875]	[15977.63671875,15999.169921875]	[15999.169921875,16020.703125]	[16020.703125,16042.236328125]	[16042.236328125,16063.76953125]	[16063.76953125,16085.302734375]	[16085.302734375,16106.8359375]	[16106.8359375,16128.369140625]	[16128.369140625,16149.90234375]	[16149.90234375,16171.435546875]	[16171.435546875,16192.96875]	[16192.96875,16214.501953125]	[16214.501953125,16236.03515625]	[16236.03515625,16257.568359375]	[16257.568359375,16279.1015625]	[16279.1015625,16300.634765625]	[16300.634765625,16322.16796875]	[16322.16796875,16343.701171875]	[16343.701171875,16365.234375]	[16365.234375,16386.767578125]	[16386.767578125,16408.30078125]	[16408.30078125,16429.833984375]	[16429.833984375,16451.3671875]	[16451.3671875,16472.900390625]	[16472.900390625,16494.43359375]	[16494.43359375,16515.966796875]	[16515.966796875,16537.5]	[16537.5,16559.033203125]	[16559.033203125,16580.56640625]	[16580.56640625,16602.099609375]	[16602.099609375,16623.6328125]	[16623.6328125,16645.166015625]	[16645.166015625,16666.69921875]	[16666.69921875,16688.232421875]	[16688.232421875,16709.765625]	[16709.765625,16731.298828125]	[16731.298828125,16752.83203125]	[16752.83203125,16774.365234375]	[16774.365234375,16795.8984375]	[16795.8984375,16817.431640625]	[16817.431640625,16838.96484375]	[16838.96484375,16860.498046875]	[16860.498046875,16882.03125]	[16882.03125,16903.564453125]	[16903.564453125,16925.09765625]	[16925.09765625,16946.630859375]	[16946.630859375,16968.1640625]	[16968.1640625,16989.697265625]	[16989.697265625,17011.23046875]	[17011.23046875,17032.763671875]	[17032.763671875,17054.296875]	[17054.296875,17075.830078125]	[17075.830078125,17097.36328125]	[17097.36328125,17118.896484375]	[17118.896484375,17140.4296875]	[17140.4296875,17161.962890625]	[17161.962890625,17183.49609375]	[17183.49609375,17205.029296875]	[17205.029296875,17226.5625]	[17226.5625,17248.095703125]	[17248.095703125,17269.62890625]	[17269.62890625,17291.162109375]	[17291.162109375,17312.6953125]	[17312.6953125,17334.228515625]	[17334.228515625,17355.76171875]	[17355.76171875,17377.294921875]	[17377.294921875,17398.828125]	[17398.828125,17420.361328125]	[17420.361328125,17441.89453125]	[17441.89453125,17463.427734375]	[17463.427734375,17484.9609375]	[17484.9609375,17506.494140625]	[17506.494140625,17528.02734375]	[17528.02734375,17549.560546875]	[17549.560546875,17571.09375]	[17571.09375,17592.626953125]	[17592.626953125,17614.16015625]	[17614.16015625,17635.693359375]	[17635.693359375,17657.2265625]	[17657.2265625,17678.759765625]	[17678.759765625,17700.29296875]	[17700.29296875,17721.826171875]	[17721.826171875,17743.359375]	[17743.359375,17764.892578125]	[17764.892578125,17786.42578125]	[17786.42578125,17807.958984375]	[17807.958984375,17829.4921875]	[17829.4921875,17851.025390625]	[17851.025390625,17872.55859375]	[17872.55859375,17894.091796875]	[17894.091796875,17915.625]	[17915.625,17937.158203125]	[17937.158203125,17958.69140625]	[17958.69140625,17980.224609375]	[17980.224609375,18001.7578125]	[18001.7578125,18023.291015625]	[18023.291015625,18044.82421875]	[18044.82421875,18066.357421875]	[18066.357421875,18087.890625]	[18087.890625,18109.423828125]	[18109.423828125,18130.95703125]	[18130.95703125,18152.490234375]	[18152.490234375,18174.0234375]	[18174.0234375,18195.556640625]	[18195.556640625,18217.08984375]	[18217.08984375,18238.623046875]	[18238.623046875,18260.15625]	[18260.15625,18281.689453125]	[18281.689453125,18303.22265625]	[18303.22265625,18324.755859375]	[18324.755859375,18346.2890625]	[18346.2890625,18367.822265625]	[18367.822265625,18389.35546875]	[18389.35546875,18410.888671875]	[18410.888671875,18432.421875]	[18432.421875,18453.955078125]	[18453.955078125,18475.48828125]	[18475.48828125,18497.021484375]	[18497.021484375,18518.5546875]	[18518.5546875,18540.087890625]	[18540.087890625,18561.62109375]	[18561.62109375,18583.154296875]	[18583.154296875,18604.6875]	[18604.6875,18626.220703125]	[18626.220703125,18647.75390625]	[18647.75390625,18669.287109375]	[18669.287109375,18690.8203125]	[18690.8203125,18712.353515625]	[18712.353515625,18733.88671875]	[18733.88671875,18755.419921875]	[18755.419921875,18776.953125]	[18776.953125,18798.486328125]	[18798.486328125,18820.01953125]	[18820.01953125,18841.552734375]	[18841.552734375,18863.0859375]	[18863.0859375,18884.619140625]	[18884.619140625,18906.15234375]	[18906.15234375,18927.685546875]	[18927.685546875,18949.21875]	[18949.21875,18970.751953125]	[18970.751953125,18992.28515625]	[18992.28515625,19013.818359375]	[19013.818359375,19035.3515625]	[19035.3515625,19056.884765625]	[19056.884765625,19078.41796875]	[19078.41796875,19099.951171875]	[19099.951171875,19121.484375]	[19121.484375,19143.017578125]	[19143.017578125,19164.55078125]	[19164.55078125,19186.083984375]	[19186.083984375,19207.6171875]	[19207.6171875,19229.150390625]	[19229.150390625,19250.68359375]	[19250.68359375,19272.216796875]	[19272.216796875,19293.75]	[19293.75,19315.283203125]	[19315.283203125,19336.81640625]	[19336.81640625,19358.349609375]	[19358.349609375,19379.8828125]	[19379.8828125,19401.416015625]	[19401.416015625,19422.94921875]	[19422.94921875,19444.482421875]	[19444.482421875,19466.015625]	[19466.015625,19487.548828125]	[19487.548828125,19509.08203125]	[19509.08203125,19530.615234375]	[19530.615234375,19552.1484375]	[19552.1484375,19573.681640625]	[19573.681640625,19595.21484375]	[19595.21484375,19616.748046875]	[19616.748046875,19638.28125]	[19638.28125,19659.814453125]	[19659.814453125,19681.34765625]	[19681.34765625,19702.880859375]	[19702.880859375,19724.4140625]	[19724.4140625,19745.947265625]	[19745.947265625,19767.48046875]	[19767.48046875,19789.013671875]	[19789.013671875,19810.546875]	[19810.546875,19832.080078125]	[19832.080078125,19853.61328125]	[19853.61328125,19875.146484375]	[19875.146484375,19896.6796875]	[19896.6796875,19918.212890625]	[19918.212890625,19939.74609375]	[19939.74609375,19961.279296875]	[19961.279296875,19982.8125]	[19982.8125,20004.345703125]	[20004.345703125,20025.87890625]	[20025.87890625,20047.412109375]	[20047.412109375,20068.9453125]	[20068.9453125,20090.478515625]	[20090.478515625,20112.01171875]	[20112.01171875,20133.544921875]	[20133.544921875,20155.078125]	[20155.078125,20176.611328125]	[20176.611328125,20198.14453125]	[20198.14453125,20219.677734375]	[20219.677734375,20241.2109375]	[20241.2109375,20262.744140625]	[20262.744140625,20284.27734375]	[20284.27734375,20305.810546875]	[20305.810546875,20327.34375]	[20327.34375,20348.876953125]	[20348.876953125,20370.41015625]	[20370.41015625,20391.943359375]	[20391.943359375,20413.4765625]	[20413.4765625,20435.009765625]	[20435.009765625,20456.54296875]	[20456.54296875,20478.076171875]	[20478.076171875,20499.609375]	[20499.609375,20521.142578125]	[20521.142578125,20542.67578125]	[20542.67578125,20564.208984375]	[20564.208984375,20585.7421875]	[20585.7421875,20607.275390625]	[20607.275390625,20628.80859375]	[20628.80859375,20650.341796875]	[20650.341796875,20671.875]	[20671.875,20693.408203125]	[20693.408203125,20714.94140625]	[20714.94140625,20736.474609375]	[20736.474609375,20758.0078125]	[20758.0078125,20779.541015625]	[20779.541015625,20801.07421875]	[20801.07421875,20822.607421875]	[20822.607421875,20844.140625]	[20844.140625,20865.673828125]	[20865.673828125,20887.20703125]	[20887.20703125,20908.740234375]	[20908.740234375,20930.2734375]	[20930.2734375,20951.806640625]	[20951.806640625,20973.33984375]	[20973.33984375,20994.873046875]	[20994.873046875,21016.40625]	[21016.40625,21037.939453125]	[21037.939453125,21059.47265625]	[21059.47265625,21081.005859375]	[21081.005859375,21102.5390625]	[21102.5390625,21124.072265625]	[21124.072265625,21145.60546875]	[21145.60546875,21167.138671875]	[21167.138671875,21188.671875]	[21188.671875,21210.205078125]	[21210.205078125,21231.73828125]	[21231.73828125,21253.271484375]	[21253.271484375,21274.8046875]	[21274.8046875,21296.337890625]	[21296.337890625,21317.87109375]	[21317.87109375,21339.404296875]	[21339.404296875,21360.9375]	[21360.9375,21382.470703125]	[21382.470703125,21404.00390625]	[21404.00390625,21425.537109375]	[21425.537109375,21447.0703125]	[21447.0703125,21468.603515625]	[21468.603515625,21490.13671875]	[21490.13671875,21511.669921875]	[21511.669921875,21533.203125]	[21533.203125,21554.736328125]	[21554.736328125,21576.26953125]	[21576.26953125,21597.802734375]	[21597.802734375,21619.3359375]	[21619.3359375,21640.869140625]	[21640.869140625,21662.40234375]	[21662.40234375,21683.935546875]	[21683.935546875,21705.46875]	[21705.46875,21727.001953125]	[21727.001953125,21748.53515625]	[21748.53515625,21770.068359375]	[21770.068359375,21791.6015625]	[21791.6015625,21813.134765625]	[21813.134765625,21834.66796875]	[21834.66796875,21856.201171875]	[21856.201171875,21877.734375]	[21877.734375,21899.267578125]	[21899.267578125,21920.80078125]	[21920.80078125,21942.333984375]	[21942.333984375,21963.8671875]	[21963.8671875,21985.400390625]	[21985.400390625,22006.93359375]	[22006.93359375,22028.466796875]	[22028.466796875,22050]
																																																																																																																																																																																																																																																																																																																																																																																																																																																																																																																																																																																																																																																																																																																																																																																																																																																																																																																																																																																																																																																															
																																																																																																																																																																																																																																																																																																																																																																																																																																																																																																																																																																																																																																																																																																																																																																																																																																																																																																																																																																																																																																																															
																																																																																																																																																																																																																																																																																																																																																																																																																																																																																																																																																																																																																																																																																																																																																																																																																																																																																																																																																																																																																																																															
																																																																																																																																																																																																																																																																																																																																																																																																																																																																																																																																																																																																																																																																																																																																																																																																																																																																																																																																																																																																																																																															
																																																																																																																																																																																																																																																																																																																																																																																																																																																																																																																																																																																																																																																																																																																																																																																																																																																																																																																																																																																																																																																															
3,4	3,5	4,4	4,5	4,6	5,7&6,13																																																																																																																																																																																																																																																																																																																																																																																																																																																																																																																																																																																																																																																																																																																																																																																																																																																																																																																																																																																																																																																										
6,11&6,12	6,9&6,10	6,8	6,7	6,6	6,5																																																																																																																																																																																																																																																																																																																																																																																																																																																																																																																																																																																																																																																																																																																																																																																																																																																																																																																																																																																																																																																										
7,9&8,17	8,15&8,16	8,13&8,14	8,9&8,10	8,8&9,15	8,6&8,7																																																																																																																																																																																																																																																																																																																																																																																																																																																																																																																																																																																																																																																																																																																																																																																																																																																																																																																																																																																																																																																										
8,5	9,7&9,8&10,18	9,5&9,6	9,3&9,4&10,5	9,1&9,2																																																																																																																																																																																																																																																																																																																																																																																																																																																																																																																																																																																																																																																																																																																																																																																																																																																																																																																																																																																																																																																											
